Test/svg/4_bits_adder/test/4bit.vcd
$date
  Tue Jul  7 10:43:15 2015
$end
$version
  GHDL v0
$end
$timescale
  1 fs
$end
$var reg 8 ! resultat[7:0] $end
$var reg 1 " monreset $end
$scope module uut $end
$var reg 1 # reset $end
$var reg 8 $ sortiecompteur[7:0] $end
$var reg 8 % entreereg[7:0] $end
$var reg 8 & sortiereg[7:0] $end
$var reg 1 ' clock $end
$var reg 1 ( dev0 $end
$scope module adderinstance $end
$var reg 8 ) x[7:0] $end
$var reg 8 * y[7:0] $end
$var reg 1 + cin $end
$var reg 8 , s[7:0] $end
$var reg 1 - cout $end
$var reg 9 . c[8:0] $end
$scope module addloop(0) $end
$scope module fulladderinstance $end
$var reg 1 / x $end
$var reg 1 0 y $end
$var reg 1 1 cin $end
$var reg 1 2 cout $end
$var reg 1 3 sum $end
$upscope $end
$upscope $end
$scope module addloop(1) $end
$scope module fulladderinstance $end
$var reg 1 4 x $end
$var reg 1 5 y $end
$var reg 1 6 cin $end
$var reg 1 7 cout $end
$var reg 1 8 sum $end
$upscope $end
$upscope $end
$scope module addloop(2) $end
$scope module fulladderinstance $end
$var reg 1 9 x $end
$var reg 1 : y $end
$var reg 1 ; cin $end
$var reg 1 < cout $end
$var reg 1 = sum $end
$upscope $end
$upscope $end
$scope module addloop(3) $end
$scope module fulladderinstance $end
$var reg 1 > x $end
$var reg 1 ? y $end
$var reg 1 @ cin $end
$var reg 1 A cout $end
$var reg 1 B sum $end
$upscope $end
$upscope $end
$scope module addloop(4) $end
$scope module fulladderinstance $end
$var reg 1 C x $end
$var reg 1 D y $end
$var reg 1 E cin $end
$var reg 1 F cout $end
$var reg 1 G sum $end
$upscope $end
$upscope $end
$scope module addloop(5) $end
$scope module fulladderinstance $end
$var reg 1 H x $end
$var reg 1 I y $end
$var reg 1 J cin $end
$var reg 1 K cout $end
$var reg 1 L sum $end
$upscope $end
$upscope $end
$scope module addloop(6) $end
$scope module fulladderinstance $end
$var reg 1 M x $end
$var reg 1 N y $end
$var reg 1 O cin $end
$var reg 1 P cout $end
$var reg 1 Q sum $end
$upscope $end
$upscope $end
$scope module addloop(7) $end
$scope module fulladderinstance $end
$var reg 1 R x $end
$var reg 1 S y $end
$var reg 1 T cin $end
$var reg 1 U cout $end
$var reg 1 V sum $end
$upscope $end
$upscope $end
$upscope $end
$scope module reginstance $end
$var reg 1 W clk $end
$var reg 1 X rst $end
$var reg 1 Y enable $end
$var reg 8 Z entree[7:0] $end
$var reg 8 [ sortie[7:0] $end
$upscope $end
$scope module clkinstance $end
$var reg 1 \ clk0 $end
$upscope $end
$upscope $end
$enddefinitions $end
#0
bUUUUUUUU !
1"
1#
bUUUUUUUU $
bUUUUUUUU %
bUUUUUUUU &
0'
U(
bUUUUUUUU )
b00000000 *
1+
bUUUUUUUU ,
U-
bUUUUUUUU1 .
U/
00
11
U2
U3
U4
05
U6
U7
U8
U9
0:
U;
U<
U=
U>
0?
U@
UA
UB
UC
0D
UE
UF
UG
UH
0I
UJ
UK
UL
UM
0N
UO
UP
UQ
UR
0S
UT
UU
UV
0W
1X
1Y
bUUUUUUUU Z
bUUUUUUUU [
0\
#30000
bUUUUUUUU ,
U3
U8
U=
UB
UG
UL
UQ
UV
#80000
U2
U7
U<
UA
UF
UK
UP
UU
#500000
1'
1W
bUUUUUUUU [
1\
#1000000
0'
0W
0\
#1500000
1'
1W
bUUUUUUUU [
1\
#2000000
0'
0W
0\
#2500000
1'
1W
bUUUUUUUU [
1\
#3000000
0'
0W
0\
#3500000
1'
1W
bUUUUUUUU [
1\
#4000000
0'
0W
0\
#4500000
1'
1W
bUUUUUUUU [
1\
#5000000
0'
0W
0\
#5500000
1'
1W
bUUUUUUUU [
1\
#6000000
0'
0W
0\
#6500000
1'
1W
bUUUUUUUU [
1\
#7000000
0'
0W
0\
#7500000
1'
1W
bUUUUUUUU [
1\
#8000000
0'
0W
0\
#8500000
1'
1W
bUUUUUUUU [
1\
#9000000
0'
0W
0\
#9500000
1'
1W
bUUUUUUUU [
1\
#10000000
0"
0#
0'
0W
0X
0\
#10500000
1'
1W
bUUUUUUUU [
1\
#11000000
0'
0W
0\
#11500000
1'
1W
bUUUUUUUU [
1\
#12000000
0'
0W
0\
#12500000
1'
1W
bUUUUUUUU [
1\
#13000000
0'
0W
0\
#13500000
1'
1W
bUUUUUUUU [
1\
#14000000
0'
0W
0\
#14500000
1'
1W
bUUUUUUUU [
1\
#15000000
0'
0W
0\
#15500000
1'
1W
bUUUUUUUU [
1\
#16000000
0'
0W
0\
#16500000
1'
1W
bUUUUUUUU [
1\
#17000000
0'
0W
0\
#17500000
1'
1W
bUUUUUUUU [
1\
#18000000
0'
0W
0\
#18500000
1'
1W
bUUUUUUUU [
1\
#19000000
0'
0W
0\
#19500000
1'
1W
bUUUUUUUU [
1\
#20000000
0'
0W
0\
#20500000
1'
1W
bUUUUUUUU [
1\
#21000000
0'
0W
0\
#21500000
1'
1W
bUUUUUUUU [
1\
#22000000
0'
0W
0\
#22500000
1'
1W
bUUUUUUUU [
1\
#23000000
0'
0W
0\
#23500000
1'
1W
bUUUUUUUU [
1\
#24000000
0'
0W
0\
#24500000
1'
1W
bUUUUUUUU [
1\
#25000000
0'
0W
0\
#25500000
1'
1W
bUUUUUUUU [
1\
#26000000
0'
0W
0\
#26500000
1'
1W
bUUUUUUUU [
1\
#27000000
0'
0W
0\
#27500000
1'
1W
bUUUUUUUU [
1\
#28000000
0'
0W
0\
#28500000
1'
1W
bUUUUUUUU [
1\
#29000000
0'
0W
0\
#29500000
1'
1W
bUUUUUUUU [
1\
#30000000
0'
0W
0\
#30500000
1'
1W
bUUUUUUUU [
1\
#31000000
0'
0W
0\
#31500000
1'
1W
bUUUUUUUU [
1\
#32000000
0'
0W
0\
#32500000
1'
1W
bUUUUUUUU [
1\
#33000000
0'
0W
0\
#33500000
1'
1W
bUUUUUUUU [
1\
#34000000
0'
0W
0\
#34500000
1'
1W
bUUUUUUUU [
1\
#35000000
0'
0W
0\
#35500000
1'
1W
bUUUUUUUU [
1\
#36000000
0'
0W
0\
#36500000
1'
1W
bUUUUUUUU [
1\
#37000000
0'
0W
0\
#37500000
1'
1W
bUUUUUUUU [
1\
#38000000
0'
0W
0\
#38500000
1'
1W
bUUUUUUUU [
1\
#39000000
0'
0W
0\
#39500000
1'
1W
bUUUUUUUU [
1\
#40000000
0'
0W
0\
#40500000
1'
1W
bUUUUUUUU [
1\
#41000000
0'
0W
0\
#41500000
1'
1W
bUUUUUUUU [
1\
#42000000
0'
0W
0\
#42500000
1'
1W
bUUUUUUUU [
1\
#43000000
0'
0W
0\
#43500000
1'
1W
bUUUUUUUU [
1\
#44000000
0'
0W
0\
#44500000
1'
1W
bUUUUUUUU [
1\
#45000000
0'
0W
0\
#45500000
1'
1W
bUUUUUUUU [
1\
#46000000
0'
0W
0\
#46500000
1'
1W
bUUUUUUUU [
1\
#47000000
0'
0W
0\
#47500000
1'
1W
bUUUUUUUU [
1\
#48000000
0'
0W
0\
#48500000
1'
1W
bUUUUUUUU [
1\
#49000000
0'
0W
0\
#49500000
1'
1W
bUUUUUUUU [
1\
#50000000
0'
0W
0\
#50500000
1'
1W
bUUUUUUUU [
1\
#51000000
0'
0W
0\
#51500000
1'
1W
bUUUUUUUU [
1\
#52000000
0'
0W
0\
#52500000
1'
1W
bUUUUUUUU [
1\
#53000000
0'
0W
0\
#53500000
1'
1W
bUUUUUUUU [
1\
#54000000
0'
0W
0\
#54500000
1'
1W
bUUUUUUUU [
1\
#55000000
0'
0W
0\
#55500000
1'
1W
bUUUUUUUU [
1\
#56000000
0'
0W
0\
#56500000
1'
1W
bUUUUUUUU [
1\
#57000000
0'
0W
0\
#57500000
1'
1W
bUUUUUUUU [
1\
#58000000
0'
0W
0\
#58500000
1'
1W
bUUUUUUUU [
1\
#59000000
0'
0W
0\
#59500000
1'
1W
bUUUUUUUU [
1\
#60000000
0'
0W
0\
#60500000
1'
1W
bUUUUUUUU [
1\
#61000000
0'
0W
0\
#61500000
1'
1W
bUUUUUUUU [
1\
#62000000
0'
0W
0\
#62500000
1'
1W
bUUUUUUUU [
1\
#63000000
0'
0W
0\
#63500000
1'
1W
bUUUUUUUU [
1\
#64000000
0'
0W
0\
#64500000
1'
1W
bUUUUUUUU [
1\
#65000000
0'
0W
0\
#65500000
1'
1W
bUUUUUUUU [
1\
#66000000
0'
0W
0\
#66500000
1'
1W
bUUUUUUUU [
1\
#67000000
0'
0W
0\
#67500000
1'
1W
bUUUUUUUU [
1\
#68000000
0'
0W
0\
#68500000
1'
1W
bUUUUUUUU [
1\
#69000000
0'
0W
0\
#69500000
1'
1W
bUUUUUUUU [
1\
#70000000
0'
0W
0\
#70500000
1'
1W
bUUUUUUUU [
1\
#71000000
0'
0W
0\
#71500000
1'
1W
bUUUUUUUU [
1\
#72000000
0'
0W
0\
#72500000
1'
1W
bUUUUUUUU [
1\
#73000000
0'
0W
0\
#73500000
1'
1W
bUUUUUUUU [
1\
#74000000
0'
0W
0\
#74500000
1'
1W
bUUUUUUUU [
1\
#75000000
0'
0W
0\
#75500000
1'
1W
bUUUUUUUU [
1\
#76000000
0'
0W
0\
#76500000
1'
1W
bUUUUUUUU [
1\
#77000000
0'
0W
0\
#77500000
1'
1W
bUUUUUUUU [
1\
#78000000
0'
0W
0\
#78500000
1'
1W
bUUUUUUUU [
1\
#79000000
0'
0W
0\
#79500000
1'
1W
bUUUUUUUU [
1\
#80000000
0'
0W
0\
#80500000
1'
1W
bUUUUUUUU [
1\
#81000000
0'
0W
0\
#81500000
1'
1W
bUUUUUUUU [
1\
#82000000
0'
0W
0\
#82500000
1'
1W
bUUUUUUUU [
1\
#83000000
0'
0W
0\
#83500000
1'
1W
bUUUUUUUU [
1\
#84000000
0'
0W
0\
#84500000
1'
1W
bUUUUUUUU [
1\
#85000000
0'
0W
0\
#85500000
1'
1W
bUUUUUUUU [
1\
#86000000
0'
0W
0\
#86500000
1'
1W
bUUUUUUUU [
1\
#87000000
0'
0W
0\
#87500000
1'
1W
bUUUUUUUU [
1\
#88000000
0'
0W
0\
#88500000
1'
1W
bUUUUUUUU [
1\
#89000000
0'
0W
0\
#89500000
1'
1W
bUUUUUUUU [
1\
#90000000
0'
0W
0\
#90500000
1'
1W
bUUUUUUUU [
1\
#91000000
0'
0W
0\
#91500000
1'
1W
bUUUUUUUU [
1\
#92000000
0'
0W
0\
#92500000
1'
1W
bUUUUUUUU [
1\
#93000000
0'
0W
0\
#93500000
1'
1W
bUUUUUUUU [
1\
#94000000
0'
0W
0\
#94500000
1'
1W
bUUUUUUUU [
1\
#95000000
0'
0W
0\
#95500000
1'
1W
bUUUUUUUU [
1\
#96000000
0'
0W
0\
#96500000
1'
1W
bUUUUUUUU [
1\
#97000000
0'
0W
0\
#97500000
1'
1W
bUUUUUUUU [
1\
#98000000
0'
0W
0\
#98500000
1'
1W
bUUUUUUUU [
1\
#99000000
0'
0W
0\
#99500000
1'
1W
bUUUUUUUU [
1\
#100000000
0'
0W
0\
#100500000
1'
1W
bUUUUUUUU [
1\
#101000000
0'
0W
0\
#101500000
1'
1W
bUUUUUUUU [
1\
#102000000
0'
0W
0\
#102500000
1'
1W
bUUUUUUUU [
1\
#103000000
0'
0W
0\
#103500000
1'
1W
bUUUUUUUU [
1\
#104000000
0'
0W
0\
#104500000
1'
1W
bUUUUUUUU [
1\
#105000000
0'
0W
0\
#105500000
1'
1W
bUUUUUUUU [
1\
#106000000
0'
0W
0\
#106500000
1'
1W
bUUUUUUUU [
1\
#107000000
0'
0W
0\
#107500000
1'
1W
bUUUUUUUU [
1\
#108000000
0'
0W
0\
#108500000
1'
1W
bUUUUUUUU [
1\
#109000000
0'
0W
0\
#109500000
1'
1W
bUUUUUUUU [
1\
#110000000
0'
0W
0\
#110500000
1'
1W
bUUUUUUUU [
1\
#111000000
0'
0W
0\
#111500000
1'
1W
bUUUUUUUU [
1\
#112000000
0'
0W
0\
#112500000
1'
1W
bUUUUUUUU [
1\
#113000000
0'
0W
0\
#113500000
1'
1W
bUUUUUUUU [
1\
#114000000
0'
0W
0\
#114500000
1'
1W
bUUUUUUUU [
1\
#115000000
0'
0W
0\
#115500000
1'
1W
bUUUUUUUU [
1\
#116000000
0'
0W
0\
#116500000
1'
1W
bUUUUUUUU [
1\
#117000000
0'
0W
0\
#117500000
1'
1W
bUUUUUUUU [
1\
#118000000
0'
0W
0\
#118500000
1'
1W
bUUUUUUUU [
1\
#119000000
0'
0W
0\
#119500000
1'
1W
bUUUUUUUU [
1\
#120000000
0'
0W
0\
#120500000
1'
1W
bUUUUUUUU [
1\
#121000000
0'
0W
0\
#121500000
1'
1W
bUUUUUUUU [
1\
#122000000
0'
0W
0\
#122500000
1'
1W
bUUUUUUUU [
1\
#123000000
0'
0W
0\
#123500000
1'
1W
bUUUUUUUU [
1\
#124000000
0'
0W
0\
#124500000
1'
1W
bUUUUUUUU [
1\
#125000000
0'
0W
0\
#125500000
1'
1W
bUUUUUUUU [
1\
#126000000
0'
0W
0\
#126500000
1'
1W
bUUUUUUUU [
1\
#127000000
0'
0W
0\
#127500000
1'
1W
bUUUUUUUU [
1\
#128000000
0'
0W
0\
#128500000
1'
1W
bUUUUUUUU [
1\
#129000000
0'
0W
0\
#129500000
1'
1W
bUUUUUUUU [
1\
#130000000
0'
0W
0\
#130500000
1'
1W
bUUUUUUUU [
1\
#131000000
0'
0W
0\
#131500000
1'
1W
bUUUUUUUU [
1\
#132000000
0'
0W
0\
#132500000
1'
1W
bUUUUUUUU [
1\
#133000000
0'
0W
0\
#133500000
1'
1W
bUUUUUUUU [
1\
#134000000
0'
0W
0\
#134500000
1'
1W
bUUUUUUUU [
1\
#135000000
0'
0W
0\
#135500000
1'
1W
bUUUUUUUU [
1\
#136000000
0'
0W
0\
#136500000
1'
1W
bUUUUUUUU [
1\
#137000000
0'
0W
0\
#137500000
1'
1W
bUUUUUUUU [
1\
#138000000
0'
0W
0\
#138500000
1'
1W
bUUUUUUUU [
1\
#139000000
0'
0W
0\
#139500000
1'
1W
bUUUUUUUU [
1\
#140000000
0'
0W
0\
#140500000
1'
1W
bUUUUUUUU [
1\
#141000000
0'
0W
0\
#141500000
1'
1W
bUUUUUUUU [
1\
#142000000
0'
0W
0\
#142500000
1'
1W
bUUUUUUUU [
1\
#143000000
0'
0W
0\
#143500000
1'
1W
bUUUUUUUU [
1\
#144000000
0'
0W
0\
#144500000
1'
1W
bUUUUUUUU [
1\
#145000000
0'
0W
0\
#145500000
1'
1W
bUUUUUUUU [
1\
#146000000
0'
0W
0\
#146500000
1'
1W
bUUUUUUUU [
1\
#147000000
0'
0W
0\
#147500000
1'
1W
bUUUUUUUU [
1\
#148000000
0'
0W
0\
#148500000
1'
1W
bUUUUUUUU [
1\
#149000000
0'
0W
0\
#149500000
1'
1W
bUUUUUUUU [
1\
#150000000
0'
0W
0\
#150500000
1'
1W
bUUUUUUUU [
1\
#151000000
0'
0W
0\
#151500000
1'
1W
bUUUUUUUU [
1\
#152000000
0'
0W
0\
#152500000
1'
1W
bUUUUUUUU [
1\
#153000000
0'
0W
0\
#153500000
1'
1W
bUUUUUUUU [
1\
#154000000
0'
0W
0\
#154500000
1'
1W
bUUUUUUUU [
1\
#155000000
0'
0W
0\
#155500000
1'
1W
bUUUUUUUU [
1\
#156000000
0'
0W
0\
#156500000
1'
1W
bUUUUUUUU [
1\
#157000000
0'
0W
0\
#157500000
1'
1W
bUUUUUUUU [
1\
#158000000
0'
0W
0\
#158500000
1'
1W
bUUUUUUUU [
1\
#159000000
0'
0W
0\
#159500000
1'
1W
bUUUUUUUU [
1\
#160000000
0'
0W
0\
#160500000
1'
1W
bUUUUUUUU [
1\
#161000000
0'
0W
0\
#161500000
1'
1W
bUUUUUUUU [
1\
#162000000
0'
0W
0\
#162500000
1'
1W
bUUUUUUUU [
1\
#163000000
0'
0W
0\
#163500000
1'
1W
bUUUUUUUU [
1\
#164000000
0'
0W
0\
#164500000
1'
1W
bUUUUUUUU [
1\
#165000000
0'
0W
0\
#165500000
1'
1W
bUUUUUUUU [
1\
#166000000
0'
0W
0\
#166500000
1'
1W
bUUUUUUUU [
1\
#167000000
0'
0W
0\
#167500000
1'
1W
bUUUUUUUU [
1\
#168000000
0'
0W
0\
#168500000
1'
1W
bUUUUUUUU [
1\
#169000000
0'
0W
0\
#169500000
1'
1W
bUUUUUUUU [
1\
#170000000
0'
0W
0\
#170500000
1'
1W
bUUUUUUUU [
1\
#171000000
0'
0W
0\
#171500000
1'
1W
bUUUUUUUU [
1\
#172000000
0'
0W
0\
#172500000
1'
1W
bUUUUUUUU [
1\
#173000000
0'
0W
0\
#173500000
1'
1W
bUUUUUUUU [
1\
#174000000
0'
0W
0\
#174500000
1'
1W
bUUUUUUUU [
1\
#175000000
0'
0W
0\
#175500000
1'
1W
bUUUUUUUU [
1\
#176000000
0'
0W
0\
#176500000
1'
1W
bUUUUUUUU [
1\
#177000000
0'
0W
0\
#177500000
1'
1W
bUUUUUUUU [
1\
#178000000
0'
0W
0\
#178500000
1'
1W
bUUUUUUUU [
1\
#179000000
0'
0W
0\
#179500000
1'
1W
bUUUUUUUU [
1\
#180000000
0'
0W
0\
#180500000
1'
1W
bUUUUUUUU [
1\
#181000000
0'
0W
0\
#181500000
1'
1W
bUUUUUUUU [
1\
#182000000
0'
0W
0\
#182500000
1'
1W
bUUUUUUUU [
1\
#183000000
0'
0W
0\
#183500000
1'
1W
bUUUUUUUU [
1\
#184000000
0'
0W
0\
#184500000
1'
1W
bUUUUUUUU [
1\
#185000000
0'
0W
0\
#185500000
1'
1W
bUUUUUUUU [
1\
#186000000
0'
0W
0\
#186500000
1'
1W
bUUUUUUUU [
1\
#187000000
0'
0W
0\
#187500000
1'
1W
bUUUUUUUU [
1\
#188000000
0'
0W
0\
#188500000
1'
1W
bUUUUUUUU [
1\
#189000000
0'
0W
0\
#189500000
1'
1W
bUUUUUUUU [
1\
#190000000
0'
0W
0\
#190500000
1'
1W
bUUUUUUUU [
1\
#191000000
0'
0W
0\
#191500000
1'
1W
bUUUUUUUU [
1\
#192000000
0'
0W
0\
#192500000
1'
1W
bUUUUUUUU [
1\
#193000000
0'
0W
0\
#193500000
1'
1W
bUUUUUUUU [
1\
#194000000
0'
0W
0\
#194500000
1'
1W
bUUUUUUUU [
1\
#195000000
0'
0W
0\
#195500000
1'
1W
bUUUUUUUU [
1\
#196000000
0'
0W
0\
#196500000
1'
1W
bUUUUUUUU [
1\
#197000000
0'
0W
0\
#197500000
1'
1W
bUUUUUUUU [
1\
#198000000
0'
0W
0\
#198500000
1'
1W
bUUUUUUUU [
1\
#199000000
0'
0W
0\
#199500000
1'
1W
bUUUUUUUU [
1\
#200000000
0'
0W
0\
#200500000
1'
1W
bUUUUUUUU [
1\
#201000000
0'
0W
0\
#201500000
1'
1W
bUUUUUUUU [
1\
#202000000
0'
0W
0\
#202500000
1'
1W
bUUUUUUUU [
1\
#203000000
0'
0W
0\
#203500000
1'
1W
bUUUUUUUU [
1\
#204000000
0'
0W
0\
#204500000
1'
1W
bUUUUUUUU [
1\
#205000000
0'
0W
0\
#205500000
1'
1W
bUUUUUUUU [
1\
#206000000
0'
0W
0\
#206500000
1'
1W
bUUUUUUUU [
1\
#207000000
0'
0W
0\
#207500000
1'
1W
bUUUUUUUU [
1\
#208000000
0'
0W
0\
#208500000
1'
1W
bUUUUUUUU [
1\
#209000000
0'
0W
0\
#209500000
1'
1W
bUUUUUUUU [
1\
#210000000
0'
0W
0\
#210500000
1'
1W
bUUUUUUUU [
1\
#211000000
0'
0W
0\
#211500000
1'
1W
bUUUUUUUU [
1\
#212000000
0'
0W
0\
#212500000
1'
1W
bUUUUUUUU [
1\
#213000000
0'
0W
0\
#213500000
1'
1W
bUUUUUUUU [
1\
#214000000
0'
0W
0\
#214500000
1'
1W
bUUUUUUUU [
1\
#215000000
0'
0W
0\
#215500000
1'
1W
bUUUUUUUU [
1\
#216000000
0'
0W
0\
#216500000
1'
1W
bUUUUUUUU [
1\
#217000000
0'
0W
0\
#217500000
1'
1W
bUUUUUUUU [
1\
#218000000
0'
0W
0\
#218500000
1'
1W
bUUUUUUUU [
1\
#219000000
0'
0W
0\
#219500000
1'
1W
bUUUUUUUU [
1\
#220000000
0'
0W
0\
#220500000
1'
1W
bUUUUUUUU [
1\
#221000000
0'
0W
0\
#221500000
1'
1W
bUUUUUUUU [
1\
#222000000
0'
0W
0\
#222500000
1'
1W
bUUUUUUUU [
1\
#223000000
0'
0W
0\
#223500000
1'
1W
bUUUUUUUU [
1\
#224000000
0'
0W
0\
#224500000
1'
1W
bUUUUUUUU [
1\
#225000000
0'
0W
0\
#225500000
1'
1W
bUUUUUUUU [
1\
#226000000
0'
0W
0\
#226500000
1'
1W
bUUUUUUUU [
1\
#227000000
0'
0W
0\
#227500000
1'
1W
bUUUUUUUU [
1\
#228000000
0'
0W
0\
#228500000
1'
1W
bUUUUUUUU [
1\
#229000000
0'
0W
0\
#229500000
1'
1W
bUUUUUUUU [
1\
#230000000
0'
0W
0\
#230500000
1'
1W
bUUUUUUUU [
1\
#231000000
0'
0W
0\
#231500000
1'
1W
bUUUUUUUU [
1\
#232000000
0'
0W
0\
#232500000
1'
1W
bUUUUUUUU [
1\
#233000000
0'
0W
0\
#233500000
1'
1W
bUUUUUUUU [
1\
#234000000
0'
0W
0\
#234500000
1'
1W
bUUUUUUUU [
1\
#235000000
0'
0W
0\
#235500000
1'
1W
bUUUUUUUU [
1\
#236000000
0'
0W
0\
#236500000
1'
1W
bUUUUUUUU [
1\
#237000000
0'
0W
0\
#237500000
1'
1W
bUUUUUUUU [
1\
#238000000
0'
0W
0\
#238500000
1'
1W
bUUUUUUUU [
1\
#239000000
0'
0W
0\
#239500000
1'
1W
bUUUUUUUU [
1\
#240000000
0'
0W
0\
#240500000
1'
1W
bUUUUUUUU [
1\
#241000000
0'
0W
0\
#241500000
1'
1W
bUUUUUUUU [
1\
#242000000
0'
0W
0\
#242500000
1'
1W
bUUUUUUUU [
1\
#243000000
0'
0W
0\
#243500000
1'
1W
bUUUUUUUU [
1\
#244000000
0'
0W
0\
#244500000
1'
1W
bUUUUUUUU [
1\
#245000000
0'
0W
0\
#245500000
1'
1W
bUUUUUUUU [
1\
#246000000
0'
0W
0\
#246500000
1'
1W
bUUUUUUUU [
1\
#247000000
0'
0W
0\
#247500000
1'
1W
bUUUUUUUU [
1\
#248000000
0'
0W
0\
#248500000
1'
1W
bUUUUUUUU [
1\
#249000000
0'
0W
0\
#249500000
1'
1W
bUUUUUUUU [
1\
#250000000
0'
0W
0\
#250500000
1'
1W
bUUUUUUUU [
1\
#251000000
0'
0W
0\
#251500000
1'
1W
bUUUUUUUU [
1\
#252000000
0'
0W
0\
#252500000
1'
1W
bUUUUUUUU [
1\
#253000000
0'
0W
0\
#253500000
1'
1W
bUUUUUUUU [
1\
#254000000
0'
0W
0\
#254500000
1'
1W
bUUUUUUUU [
1\
#255000000
0'
0W
0\
#255500000
1'
1W
bUUUUUUUU [
1\
#256000000
0'
0W
0\
#256500000
1'
1W
bUUUUUUUU [
1\
#257000000
0'
0W
0\
#257500000
1'
1W
bUUUUUUUU [
1\
#258000000
0'
0W
0\
#258500000
1'
1W
bUUUUUUUU [
1\
#259000000
0'
0W
0\
#259500000
1'
1W
bUUUUUUUU [
1\
#260000000
0'
0W
0\
#260500000
1'
1W
bUUUUUUUU [
1\
#261000000
0'
0W
0\
#261500000
1'
1W
bUUUUUUUU [
1\
#262000000
0'
0W
0\
#262500000
1'
1W
bUUUUUUUU [
1\
#263000000
0'
0W
0\
#263500000
1'
1W
bUUUUUUUU [
1\
#264000000
0'
0W
0\
#264500000
1'
1W
bUUUUUUUU [
1\
#265000000
0'
0W
0\
#265500000
1'
1W
bUUUUUUUU [
1\
#266000000
0'
0W
0\
#266500000
1'
1W
bUUUUUUUU [
1\
#267000000
0'
0W
0\
#267500000
1'
1W
bUUUUUUUU [
1\
#268000000
0'
0W
0\
#268500000
1'
1W
bUUUUUUUU [
1\
#269000000
0'
0W
0\
#269500000
1'
1W
bUUUUUUUU [
1\
#270000000
0'
0W
0\
#270500000
1'
1W
bUUUUUUUU [
1\
#271000000
0'
0W
0\
#271500000
1'
1W
bUUUUUUUU [
1\
#272000000
0'
0W
0\
#272500000
1'
1W
bUUUUUUUU [
1\
#273000000
0'
0W
0\
#273500000
1'
1W
bUUUUUUUU [
1\
#274000000
0'
0W
0\
#274500000
1'
1W
bUUUUUUUU [
1\
#275000000
0'
0W
0\
#275500000
1'
1W
bUUUUUUUU [
1\
#276000000
0'
0W
0\
#276500000
1'
1W
bUUUUUUUU [
1\
#277000000
0'
0W
0\
#277500000
1'
1W
bUUUUUUUU [
1\
#278000000
0'
0W
0\
#278500000
1'
1W
bUUUUUUUU [
1\
#279000000
0'
0W
0\
#279500000
1'
1W
bUUUUUUUU [
1\
#280000000
0'
0W
0\
#280500000
1'
1W
bUUUUUUUU [
1\
#281000000
0'
0W
0\
#281500000
1'
1W
bUUUUUUUU [
1\
#282000000
0'
0W
0\
#282500000
1'
1W
bUUUUUUUU [
1\
#283000000
0'
0W
0\
#283500000
1'
1W
bUUUUUUUU [
1\
#284000000
0'
0W
0\
#284500000
1'
1W
bUUUUUUUU [
1\
#285000000
0'
0W
0\
#285500000
1'
1W
bUUUUUUUU [
1\
#286000000
0'
0W
0\
#286500000
1'
1W
bUUUUUUUU [
1\
#287000000
0'
0W
0\
#287500000
1'
1W
bUUUUUUUU [
1\
#288000000
0'
0W
0\
#288500000
1'
1W
bUUUUUUUU [
1\
#289000000
0'
0W
0\
#289500000
1'
1W
bUUUUUUUU [
1\
#290000000
0'
0W
0\
#290500000
1'
1W
bUUUUUUUU [
1\
#291000000
0'
0W
0\
#291500000
1'
1W
bUUUUUUUU [
1\
#292000000
0'
0W
0\
#292500000
1'
1W
bUUUUUUUU [
1\
#293000000
0'
0W
0\
#293500000
1'
1W
bUUUUUUUU [
1\
#294000000
0'
0W
0\
#294500000
1'
1W
bUUUUUUUU [
1\
#295000000
0'
0W
0\
#295500000
1'
1W
bUUUUUUUU [
1\
#296000000
0'
0W
0\
#296500000
1'
1W
bUUUUUUUU [
1\
#297000000
0'
0W
0\
#297500000
1'
1W
bUUUUUUUU [
1\
#298000000
0'
0W
0\
#298500000
1'
1W
bUUUUUUUU [
1\
#299000000
0'
0W
0\
#299500000
1'
1W
bUUUUUUUU [
1\
#300000000
0'
0W
0\
#300500000
1'
1W
bUUUUUUUU [
1\
#301000000
0'
0W
0\
#301500000
1'
1W
bUUUUUUUU [
1\
#302000000
0'
0W
0\
#302500000
1'
1W
bUUUUUUUU [
1\
#303000000
0'
0W
0\
#303500000
1'
1W
bUUUUUUUU [
1\
#304000000
0'
0W
0\
#304500000
1'
1W
bUUUUUUUU [
1\
#305000000
0'
0W
0\
#305500000
1'
1W
bUUUUUUUU [
1\
#306000000
0'
0W
0\
#306500000
1'
1W
bUUUUUUUU [
1\
#307000000
0'
0W
0\
#307500000
1'
1W
bUUUUUUUU [
1\
#308000000
0'
0W
0\
#308500000
1'
1W
bUUUUUUUU [
1\
#309000000
0'
0W
0\
#309500000
1'
1W
bUUUUUUUU [
1\
#310000000
0'
0W
0\
#310500000
1'
1W
bUUUUUUUU [
1\
#311000000
0'
0W
0\
#311500000
1'
1W
bUUUUUUUU [
1\
#312000000
0'
0W
0\
#312500000
1'
1W
bUUUUUUUU [
1\
#313000000
0'
0W
0\
#313500000
1'
1W
bUUUUUUUU [
1\
#314000000
0'
0W
0\
#314500000
1'
1W
bUUUUUUUU [
1\
#315000000
0'
0W
0\
#315500000
1'
1W
bUUUUUUUU [
1\
#316000000
0'
0W
0\
#316500000
1'
1W
bUUUUUUUU [
1\
#317000000
0'
0W
0\
#317500000
1'
1W
bUUUUUUUU [
1\
#318000000
0'
0W
0\
#318500000
1'
1W
bUUUUUUUU [
1\
#319000000
0'
0W
0\
#319500000
1'
1W
bUUUUUUUU [
1\
#320000000
0'
0W
0\
#320500000
1'
1W
bUUUUUUUU [
1\
#321000000
0'
0W
0\
#321500000
1'
1W
bUUUUUUUU [
1\
#322000000
0'
0W
0\
#322500000
1'
1W
bUUUUUUUU [
1\
#323000000
0'
0W
0\
#323500000
1'
1W
bUUUUUUUU [
1\
#324000000
0'
0W
0\
#324500000
1'
1W
bUUUUUUUU [
1\
#325000000
0'
0W
0\
#325500000
1'
1W
bUUUUUUUU [
1\
#326000000
0'
0W
0\
#326500000
1'
1W
bUUUUUUUU [
1\
#327000000
0'
0W
0\
#327500000
1'
1W
bUUUUUUUU [
1\
#328000000
0'
0W
0\
#328500000
1'
1W
bUUUUUUUU [
1\
#329000000
0'
0W
0\
#329500000
1'
1W
bUUUUUUUU [
1\
#330000000
0'
0W
0\
#330500000
1'
1W
bUUUUUUUU [
1\
#331000000
0'
0W
0\
#331500000
1'
1W
bUUUUUUUU [
1\
#332000000
0'
0W
0\
#332500000
1'
1W
bUUUUUUUU [
1\
#333000000
0'
0W
0\
#333500000
1'
1W
bUUUUUUUU [
1\
#334000000
0'
0W
0\
#334500000
1'
1W
bUUUUUUUU [
1\
#335000000
0'
0W
0\
#335500000
1'
1W
bUUUUUUUU [
1\
#336000000
0'
0W
0\
#336500000
1'
1W
bUUUUUUUU [
1\
#337000000
0'
0W
0\
#337500000
1'
1W
bUUUUUUUU [
1\
#338000000
0'
0W
0\
#338500000
1'
1W
bUUUUUUUU [
1\
#339000000
0'
0W
0\
#339500000
1'
1W
bUUUUUUUU [
1\
#340000000
0'
0W
0\
#340500000
1'
1W
bUUUUUUUU [
1\
#341000000
0'
0W
0\
